{
    "classes": [
    	"foreman",
    	"r10k"
    ],
    
    "r10k::include_prerun_command": true,
    "r10k::version": "1.3.1",
    "r10k::config::sources" : {
		"openstack": {
			"remote": "https://DaJenko@bitbucket.org/DaJenko/openstack-env.git",
			"basedir": "${::settings::confdir}/environments"
		},
		"foreman" :{
			"remote": "https://DaJenko@bitbucket.org/DaJenko/foreman-env.git",
			"basedir": "${::settings::confdir}/environments"
		}
	},
    "foreman::dbmanage": true,
    "foreman::repo": "nightly",
    "foreman::db_type": "mysql"
}
